Analyze_PrediXcan_Results
…
We first filter for all significant genes for any of the 10
phenotypes. The last two lines of the chunk count the number of traits
each gene is significantly associated with and the number of significant
genes for each trait.

#full_df <- read_tsv("/Users/natashasanthanam/Github/rat-genomic-analysis/data/rat_metabolic_traits_best_Ac_full_assocs.txt", col_names = TRUE)

tempo_df <- full_df %>% filter(pvalue <  9.279881e-06)

#428 sig genes
tempo_df %>% group_by(gene) %>% summarise(n = n())

`summarise()` ungrouping output (override with `.groups` argument)

# A tibble: 429 x 2
   gene                   n
   <chr>              <int>
 1 ENSRNOG00000000245     1
 2 ENSRNOG00000000246     1
 3 ENSRNOG00000000571     1
 4 ENSRNOG00000000763     1
 5 ENSRNOG00000000775     1
 6 ENSRNOG00000000778     1
 7 ENSRNOG00000000867     1
 8 ENSRNOG00000000891     3
 9 ENSRNOG00000000902     2
10 ENSRNOG00000000974     2
# … with 419 more rows
…
